…
Modelo de Bi (2000)

\[d_i=dap\left[ \left( \frac{log\;sin \left( \frac{\pi}{2} \frac{h_i}{ht} \right)}
{log\;sin \left( \frac{\pi}{2} \frac{1,3}{ht} \right)} \right) ^{\beta_0+\beta_1sin\left(\frac{\pi}{2}\frac{h_i}{ht}\right)+\beta_2sin\left(\frac{3\pi}{2}\frac{h_i}{ht}\right)+\beta_3sin\left(\frac{\pi}{2}\frac{h_i}{ht}\right)/\frac{h_i}{ht}+\beta_4dap+\beta_5\frac{h_i}{ht}\sqrt{dap}+\beta_6\frac{h_i}{ht}\sqrt{ht}}
\right]\]

Para praticar o ajuste dos modelos, vamos importar um conjunto de dados de cubagens.

# Importar dados
library(readxl)
dados <- read_excel('dados_cubagens.xlsx')
dados

## # A tibble: 54,415 x 7
##    ARVORE   DAP    DI     HI    HT `HI/HT` `DI/DAP`
##     <dbl> <dbl> <dbl>  <dbl> <dbl>   <dbl>    <dbl>
##  1      1 0.600 1.91  0.0735  1.47  0.05       3.18
##  2      1 0.600 1.59  0.1     1.47  0.0680     2.65
##  3      1 0.600 1.59  0.147   1.47  0.1        2.65
##  4      1 0.600 1.27  0.221   1.47  0.15       2.12
##  5      1 0.600 1.27  0.3     1.47  0.204      2.12
##  6      1 0.600 1.27  0.368   1.47  0.25       2.12
##  7      1 0.600 1.27  0.515   1.47  0.35       2.12
##  8      1 0.600 0.955 0.662   1.47  0.45       1.59
##  9      1 0.600 0.955 0.7     1.47  0.476      1.59
## 10      1 0.600 0.955 0.809   1.47  0.55       1.59
## # ... with 54,405 more rows
…
