…
O índice de sítio é a medida que representa a capacidade produtiva de um local. Geralmente este atributo é representado pela altura dominante em uma idade de referência, que costuma ser a idade de rotação do povoamento (e.g. 7 anos para eucaliptos). Por sua vez, a altura dominante geralmente é representada pela média da altura das 100 árvores de maior diâmetro por hectare, mas outros conceitos também podem ser utilizados (e.g. altura média das 100 árvores de maior altura).

Neste post, iremos praticar o ajuste do modelo de crescimento em altura dominante e a geração de curvas de sítio pelo método da curva guia. Vamos começar importando um conjunto de dados de parcelas de inventário florestal.

# Importar dados
library(readxl)
dados <- read_excel('dados_processados.xlsx')
dados

## # A tibble: 813 × 9
##    PARCELA ESPÉCIE     IDADE   DAP ALTURA     N  HDOM     G VOLTOT
##      <dbl> <chr>       <dbl> <dbl>  <dbl> <dbl> <dbl> <dbl>  <dbl>
##  1       1 PINUS TAEDA  19.8  24.1   23.6  927.  25.5  44.5   509.
##  2       2 PINUS TAEDA  19.8  25.1   24.0  748.  25.6  38.1   436.
##  3       3 PINUS TAEDA  24.2  28.0   26.6  700   26.3  44.6   563.
##  4       4 PINUS TAEDA  24.2  30.3   25.9  600.  29.9  44.9   551.
##  5       5 PINUS TAEDA  24.2  32.0   27.9  600   31.3  49.4   655.
##  6       6 PINUS TAEDA  24.2  30.7   27.4  650   29.5  50.1   657.
##  7       7 PINUS TAEDA  24.2  30.8   25.3  583.  27.2  44.5   532.
##  8       8 PINUS TAEDA  24.2  30.0   26.2  640.  30.3  46.7   579.
##  9       9 PINUS TAEDA  24.2  30.4   26.4  633.  31.1  47.2   594.
## 10      10 PINUS TAEDA  24.2  28.2   26.4  620.  29.2  40.1   507.
## # … with 803 more rows
…
