…
A fitossociologia é uma área complexa das ciências naturais que tem como objetivo caracterizar a distribuição, o agrupamento e as relações entre espécies em comunidades vegetais naturais, de modo a descrever sua estrutura e composição. A análise fitossociológica permite caracterizar vegetações quanto a sua tipologia, estágio sucessional e estado de conservação, subsidiando o manejo, a recuperação e a conservação de ecossistemas.

Este é o primeiro de uma série de posts em que apresentarei procedimentos para estudos fitossociológicos empregando dados reais. Nesse exemplo, faremos a análise da estrutura horizontal de uma comunidade de cerrado. Começaremos importando e visualizando dados oriundos de um levantamento realizado a partir de 29 unidades amostrais de 100 m².

# Importar base de dados
dados <- readxl::read_excel("dados_fitossociologia.xlsx")
# Visualizar dados importados
dados

## # A tibble: 541 x 6
##    Parcela Arvore   DAP Altura Família         Espécie              
##      <dbl>  <dbl> <dbl>  <dbl> <chr>           <chr>                
##  1       1      1 13.5     5   Dilleniaceae    Curatella americana  
##  2       1      2  5.57    3.5 Annonaceae      Annona coriacea      
##  3       1      3  5.09    4   Lauraceae       Ocotea minarum       
##  4       1      4  5.25    4   Lauraceae       Ocotea minarum       
##  5       1      5 11.8     4   Ebenaceae       Diospyros hispida    
##  6       1      6  7.96    5.5 Fabaceae        Copaifera langsdorfii
##  7       1      7  8.91    4.5 Sapindaceae     Matayba elaegnoides  
##  8       1      8  5.89    3.5 Ebenaceae       Diospyros hispida    
##  9       1      9  8.75    4.5 Ebenaceae       Diospyros hispida    
## 10       1     10  4.77    2.5 Melastomataceae Miconia sp1          
## # ... with 531 more rows
…
