Ajuste e avaliação de modelos de crescimento em altura dominante | Mensura-R - Ciência Florestal em linguagem R
…
    Sep 1, 2019

    Biometria

Na mensuração florestal a utilização de modelos de regressão para representação de comportamentos biológicos é uma tarefa comum. Para dada variável a ser modelada o teste de diferentes modelos é necessário para aplicação daquele que melhor representa o comportamento sob análise. O método tradicionalmente aplicado para classificação de sítios florestais exige o emprego de modelos de crescimento em altura dominante, e o ajuste e análise destes será objeto desta postagem.

Começaremos importando uma base de dados de povoamentos de Pinus taeda.

# Importar dados
library(readxl)
dados <- read_excel("dados_processados.xlsx")
dados

## # A tibble: 813 x 9
##    PARCELA ESPÉCIE     IDADE   DAP ALTURA     N  HDOM     G VOLTOT
##      <dbl> <chr>       <dbl> <dbl>  <dbl> <dbl> <dbl> <dbl>  <dbl>
##  1       1 PINUS TAEDA  19.8  24.1   23.6  927.  25.5  44.5   509.
##  2       2 PINUS TAEDA  19.8  25.1   24.0  748.  25.6  38.1   436.
##  3       3 PINUS TAEDA  24.2  28.0   26.6  700   26.3  44.6   563.
##  4       4 PINUS TAEDA  24.2  30.3   25.9  600.  29.9  44.9   551.
##  5       5 PINUS TAEDA  24.2  32.0   27.9  600   31.3  49.4   655.
##  6       6 PINUS TAEDA  24.2  30.7   27.4  650   29.5  50.1   657.
##  7       7 PINUS TAEDA  24.2  30.8   25.3  583.  27.2  44.5   532.
##  8       8 PINUS TAEDA  24.2  30.0   26.2  640.  30.3  46.7   579.
##  9       9 PINUS TAEDA  24.2  30.4   26.4  633.  31.1  47.2   594.
## 10      10 PINUS TAEDA  24.2  28.2   26.4  620.  29.2  40.1   507.
## # ... with 803 more rows
…
