…
Em que: \(S\) = número de espécies amostradas; \(N\) = quantidade de indivíduos amostrados; \(n_i\) = quantidade de indivíduos amostradados da espécie \(i\);\(ln\) = logaritmo natural.

Vamos às análises. Iniciaremos importando a mesma base de dados utilizada no post em que analisamos a estrutura horizontal e e também no post em que construímos curvas de acumulação de espécies e de rarefação. A seguir calcularemos todos os índices ecológicos acima apresentados, com auxílio do pacote vegan.

Obs: Para baixar os dados utilizados nesse exemplo, clique aqui.

# Importar dados
dados <- readxl::read_excel("dados_fitossociologia.xlsx")
# Visualizar dados
dados

## # A tibble: 541 x 6
##    Parcela Arvore   DAP Altura Família         Espécie              
##      <dbl>  <dbl> <dbl>  <dbl> <chr>           <chr>                
##  1       1      1 13.5     5   Dilleniaceae    Curatella americana  
##  2       1      2  5.57    3.5 Annonaceae      Annona coriacea      
##  3       1      3  5.09    4   Lauraceae       Ocotea minarum       
##  4       1      4  5.25    4   Lauraceae       Ocotea minarum       
##  5       1      5 11.8     4   Ebenaceae       Diospyros hispida    
##  6       1      6  7.96    5.5 Fabaceae        Copaifera langsdorfii
##  7       1      7  8.91    4.5 Sapindaceae     Matayba elaegnoides  
##  8       1      8  5.89    3.5 Ebenaceae       Diospyros hispida    
##  9       1      9  8.75    4.5 Ebenaceae       Diospyros hispida    
## 10       1     10  4.77    2.5 Melastomataceae Miconia sp1          
## # ... with 531 more rows
…
