…
Um problema encontrado na construção da curva do coletor é a arbitrariedade na ordem de entrada das unidades amostrais, já que cada possível ordenação pode gerar uma curva diferente, invalidando qualquer interpretação com base em sua forma.

Para contornar esse problema devemos utilizar uma curva suavizada, que consiste em uma curva média obtida a partir de um grande número de curvas geradas por procedimentos de aleatorização das unidades amostrais.

A função specaccum, implementada no pacote vegan do R, é capaz de gerar uma curva de acumulação de espécies suavizada do modo descrito acima, conforme o procedimento a seguir.

Obs: Para baixar os dados utilizados nesse exemplo, clique aqui.

# Importar dados
dados <- readxl::read_excel("dados_fitossociologia.xlsx")
# Visualizar dados
dados

## # A tibble: 541 × 6
##    Parcela Arvore   DAP Altura Família         Espécie              
##      <dbl>  <dbl> <dbl>  <dbl> <chr>           <chr>                
##  1       1      1 13.5     5   Dilleniaceae    Curatella americana  
##  2       1      2  5.57    3.5 Annonaceae      Annona coriacea      
##  3       1      3  5.09    4   Lauraceae       Ocotea minarum       
##  4       1      4  5.25    4   Lauraceae       Ocotea minarum       
##  5       1      5 11.8     4   Ebenaceae       Diospyros hispida    
##  6       1      6  7.96    5.5 Fabaceae        Copaifera langsdorfii
##  7       1      7  8.91    4.5 Sapindaceae     Matayba elaegnoides  
##  8       1      8  5.89    3.5 Ebenaceae       Diospyros hispida    
##  9       1      9  8.75    4.5 Ebenaceae       Diospyros hispida    
## 10       1     10  4.77    2.5 Melastomataceae Miconia sp1          
## # ℹ 531 more rows
…
