Krigagem do índice de sitio | Mensura-R - Ciência Florestal em linguagem R
…
## Warning: package 'readxl' was built under R version 3.6.1

library(geoR)

## --------------------------------------------------------------
##  Analysis of Geostatistical Data
##  For an Introduction to geoR go to http://www.leg.ufpr.br/geoR
##  geoR version 1.7-5.2.1 (built on 2016-05-02) is now loaded
## --------------------------------------------------------------

# Importar dados
dados <- read_excel('dados_interpolacao.xlsx')
dados

## # A tibble: 101 x 4
##    PARCELA      X       Y    IS
##      <dbl>  <dbl>   <dbl> <dbl>
##  1       1 440559 7801189  31.3
##  2       2 440846 7801282  32.0
##  3       3 440734 7801475  29.6
##  4       4 440923 7801657  29.4
##  5       5 440683 7800566  33.8
##  6       6 440709 7800769  36.9
##  7       7 440528 7800929  35.7
##  8       8 440783 7800975  31.0
##  9       9 440989 7800264  30.4
## 10      10 440872 7800395  33.9
## # ... with 91 more rows
…
